<?xml version="1.0" encoding="UTF-8" standalone="no"?>
<!-- Created with Inkscape (http://www.inkscape.org/) -->

<svg
   xmlns:dc="http://purl.org/dc/elements/1.1/"
   xmlns:cc="http://creativecommons.org/ns#"
   xmlns:rdf="http://www.w3.org/1999/02/22-rdf-syntax-ns#"
   xmlns:svg="http://www.w3.org/2000/svg"
   xmlns="http://www.w3.org/2000/svg"
   xmlns:sodipodi="http://sodipodi.sourceforge.net/DTD/sodipodi-0.dtd"
   xmlns:inkscape="http://www.inkscape.org/namespaces/inkscape"
   width="41"
   height="41"
   id="svg2"
   version="1.1"
   inkscape:version="0.48.2 r9819"
   sodipodi:docname="Play.svg"
   inkscape:export-filename="/home/alastar/Programmes/android/hciPhone/res/drawable/Forward.png"
   inkscape:export-xdpi="90"
   inkscape:export-ydpi="90">
  <defs
     id="defs4">
    <linearGradient
       id="linearGradient3793">
      <stop
         style="stop-color:#ffffff;stop-opacity:0.53900707;"
         offset="0"
         id="stop3795" />
      <stop
         style="stop-color:#ffffff;stop-opacity:0;"
         offset="1"
         id="stop3797" />
    </linearGradient>
  </defs>
  <sodipodi:namedview
     id="base"
     pagecolor="#ffffff"
     bordercolor="#666666"
     borderopacity="1.0"
     inkscape:pageopacity="0.0"
     inkscape:pageshadow="2"
     inkscape:zoom="3.959798"
     inkscape:cx="8.400438"
     inkscape:cy="23.36916"
     inkscape:document-units="px"
     inkscape:current-layer="layer1"
     showgrid="true"
     inkscape:window-width="1024"
     inkscape:window-height="576"
     inkscape:window-x="0"
     inkscape:window-y="24"
     inkscape:window-maximized="1"
     fit-margin-top="0"
     fit-margin-left="0"
     fit-margin-right="0"
     fit-margin-bottom="0"
     inkscape:snap-center="true"
     inkscape:snap-grids="false"
     inkscape:snap-object-midpoints="false">
    <inkscape:grid
       type="xygrid"
       id="grid2985"
       empspacing="5"
       visible="true"
       enabled="true"
       snapvisiblegridlinesonly="true" />
  </sodipodi:namedview>
  <metadata
     id="metadata7">
    <rdf:RDF>
      <cc:Work
         rdf:about="">
        <dc:format>image/svg+xml</dc:format>
        <dc:type
           rdf:resource="http://purl.org/dc/dcmitype/StillImage" />
        <dc:title></dc:title>
      </cc:Work>
    </rdf:RDF>
  </metadata>
  <g
     inkscape:label="Calque 1"
     inkscape:groupmode="layer"
     id="layer1"
     transform="translate(-223.03553,-472.38008)">
    <g
       id="g3805"
       transform="translate(93.738585,-68.689094)">
      <path
         inkscape:connector-curvature="0"
         id="path2990"
         d="m 170,507.36218 0,20 10,-10 z"
         style="fill:#000000;stroke:none" />
      <path
         inkscape:connector-curvature="0"
         id="path2990-7"
         d="m 160,507.36218 0,20 10,-10 z"
         style="fill:#000000;stroke:none" />
    </g>
    <g
       id="g3918"
       transform="translate(23.535534,-29.494924)">
      <rect
         ry="5"
         y="502.36218"
         x="200"
         height="40"
         width="40"
         id="rect2987-9"
         style="fill:none;stroke:none" />
    </g>
    <g
       id="g3809"
       transform="translate(98.535534,5.5050786)">
      <path
         inkscape:connector-curvature="0"
         id="path2990-6"
         d="m 145,497.36218 0,-20 -10,10 z"
         style="fill:#000000;stroke:none" />
      <path
         inkscape:connector-curvature="0"
         id="path2990-7-1"
         d="m 155,497.36218 0,-20 -10,10 z"
         style="fill:#000000;stroke:none" />
    </g>
    <rect
       style="fill:#000000;fill-opacity:1;stroke:none"
       id="rect3817"
       width="20"
       height="20"
       x="230.75761"
       y="440.69339"
       ry="0" />
    <g
       id="g3855"
       transform="translate(9.3654664,-0.60787697)">
      <rect
         ry="0"
         y="447.36218"
         x="160"
         height="20"
         width="5"
         id="rect3817-1"
         style="fill:#000000;fill-opacity:1;stroke:none" />
      <rect
         ry="0"
         y="447.36218"
         x="170"
         height="20"
         width="5"
         id="rect3817-1-6"
         style="fill:#000000;fill-opacity:1;stroke:none" />
    </g>
    <g
       id="g3890"
       transform="translate(1.0837459,-4.6484861)">
      <rect
         ry="0"
         y="447.36218"
         x="200"
         height="20"
         width="5"
         id="rect3817-1-0"
         style="fill:#000000;fill-opacity:1;stroke:none" />
      <path
         style="fill:#000000;stroke:none"
         d="m 190,447.36218 0,20 10,-10 z"
         id="path2990-4"
         inkscape:connector-curvature="0" />
    </g>
    <g
       transform="matrix(-1,0,0,-1,341.28297,914.8741)"
       id="g3890-2">
      <rect
         ry="0"
         y="447.36218"
         x="200"
         height="20"
         width="5"
         id="rect3817-1-0-3"
         style="fill:#000000;fill-opacity:1;stroke:none" />
      <path
         style="fill:#000000;stroke:none"
         d="m 190,447.36218 0,20 10,-10 z"
         id="path2990-4-4"
         inkscape:connector-curvature="0" />
    </g>
    <path
       style="fill:#000000;fill-opacity:1;stroke:none"
       d="m 277.22463,472.81522 0,-20 20,10 z"
       id="path3815"
       inkscape:connector-curvature="0" />
  </g>
</svg>
